{
  "basePath" : "${rest.googleservice.basepath}",
  "paths" : {
    "/api/directions/xml" : {
      "x-WM-BASE_PATH" : "/api/directions/xml",
      "x-WM-TAG" : "RestServiceVirtualController",
      "x-WM-RELATIVE_PATH" : "",
      "get" : {
        "x-WM-METHOD_NAME" : "invoke",
        "x-WM-ACCESS_SPECIFIER" : "APP_ONLY",
        "produces" : [ "application/xml" ],
        "operationId" : "googleservice_RestServiceVirtualController-invoke",
        "responses" : {
          "200" : {
            "schema" : {
              "$ref" : "#/definitions/RootResponse"
            },
            "description" : "Success"
          }
        },
        "parameters" : [ {
          "x-WM-EDITABLE" : false,
          "in" : "query",
          "name" : "origin",
          "format" : "string",
          "description" : "origin",
          "type" : "string",
          "required" : false
        }, {
          "x-WM-EDITABLE" : false,
          "in" : "query",
          "name" : "destination",
          "format" : "string",
          "description" : "destination",
          "type" : "string",
          "required" : false
        }, {
          "x-WM-EDITABLE" : false,
          "in" : "query",
          "name" : "sensor",
          "format" : "string",
          "description" : "sensor",
          "type" : "string",
          "required" : false
        } ],
        "tags" : [ "RestServiceVirtualController" ],
        "consumes" : [ "application/json" ]
      },
      "x-WM-COMPLETE_PATH" : "${rest.googleservice.scheme}://${rest.googleservice.host}${rest.googleservice.basepath}/api/directions/xml"
    }
  },
  "host" : "${rest.googleservice.host}",
  "schemes" : [ "${rest.googleservice.scheme}" ],
  "definitions" : {
    "southwest" : {
      "x-WM-FULLY_QUALIFIED_NAME" : "googleservice.southwest",
      "x-WM-TAGS" : [ "RestServiceVirtualController" ],
      "required" : [ "lat", "lng" ],
      "properties" : {
        "lng" : {
          "type" : "string"
        },
        "lat" : {
          "type" : "string"
        }
      }
    },
    "distance" : {
      "x-WM-FULLY_QUALIFIED_NAME" : "googleservice.distance",
      "x-WM-TAGS" : [ "RestServiceVirtualController" ],
      "required" : [ "text", "value" ],
      "properties" : {
        "text" : {
          "type" : "string"
        },
        "value" : {
          "type" : "string"
        }
      }
    },
    "geocoded_waypointEntryItem" : {
      "x-WM-FULLY_QUALIFIED_NAME" : "googleservice.geocoded_waypointEntryItem",
      "x-WM-TAGS" : [ "RestServiceVirtualController" ],
      "required" : [ "geocoder_status", "place_id", "type" ],
      "properties" : {
        "geocoder_status" : {
          "type" : "string"
        },
        "type" : {
          "x-WM-IS_LIST" : true,
          "type" : "array",
          "items" : {
            "type" : "string"
          }
        },
        "place_id" : {
          "type" : "string"
        }
      }
    },
    "stepEntryItem" : {
      "x-WM-FULLY_QUALIFIED_NAME" : "googleservice.stepEntryItem",
      "x-WM-TAGS" : [ "RestServiceVirtualController" ],
      "required" : [ "distance", "duration", "end_location", "html_instructions", "maneuver", "polyline", "start_location", "travel_mode" ],
      "properties" : {
        "duration" : {
          "$ref" : "#/definitions/duration"
        },
        "start_location" : {
          "$ref" : "#/definitions/start_location"
        },
        "travel_mode" : {
          "type" : "string"
        },
        "distance" : {
          "$ref" : "#/definitions/distance"
        },
        "html_instructions" : {
          "type" : "string"
        },
        "end_location" : {
          "$ref" : "#/definitions/end_location"
        },
        "polyline" : {
          "$ref" : "#/definitions/polyline"
        },
        "maneuver" : {
          "type" : "string"
        }
      }
    },
    "northeast" : {
      "x-WM-FULLY_QUALIFIED_NAME" : "googleservice.northeast",
      "x-WM-TAGS" : [ "RestServiceVirtualController" ],
      "required" : [ "lat", "lng" ],
      "properties" : {
        "lng" : {
          "type" : "string"
        },
        "lat" : {
          "type" : "string"
        }
      }
    },
    "leg" : {
      "x-WM-FULLY_QUALIFIED_NAME" : "googleservice.leg",
      "x-WM-TAGS" : [ "RestServiceVirtualController" ],
      "required" : [ "distance", "duration", "end_address", "end_location", "start_address", "start_location", "step" ],
      "properties" : {
        "duration" : {
          "$ref" : "#/definitions/duration"
        },
        "start_location" : {
          "$ref" : "#/definitions/start_location"
        },
        "distance" : {
          "$ref" : "#/definitions/distance"
        },
        "start_address" : {
          "type" : "string"
        },
        "end_location" : {
          "$ref" : "#/definitions/end_location"
        },
        "step" : {
          "x-WM-IS_LIST" : true,
          "type" : "array",
          "items" : {
            "$ref" : "#/definitions/stepEntryItem"
          }
        },
        "end_address" : {
          "type" : "string"
        }
      }
    },
    "duration" : {
      "x-WM-FULLY_QUALIFIED_NAME" : "googleservice.duration",
      "x-WM-TAGS" : [ "RestServiceVirtualController" ],
      "required" : [ "text", "value" ],
      "properties" : {
        "text" : {
          "type" : "string"
        },
        "value" : {
          "type" : "string"
        }
      }
    },
    "start_location" : {
      "x-WM-FULLY_QUALIFIED_NAME" : "googleservice.start_location",
      "x-WM-TAGS" : [ "RestServiceVirtualController" ],
      "required" : [ "lat", "lng" ],
      "properties" : {
        "lng" : {
          "type" : "string"
        },
        "lat" : {
          "type" : "string"
        }
      }
    },
    "route" : {
      "x-WM-FULLY_QUALIFIED_NAME" : "googleservice.route",
      "x-WM-TAGS" : [ "RestServiceVirtualController" ],
      "required" : [ "bounds", "copyrights", "leg", "overview_polyline", "summary" ],
      "properties" : {
        "summary" : {
          "type" : "string"
        },
        "copyrights" : {
          "type" : "string"
        },
        "bounds" : {
          "$ref" : "#/definitions/bounds"
        },
        "overview_polyline" : {
          "$ref" : "#/definitions/overview_polyline"
        },
        "leg" : {
          "$ref" : "#/definitions/leg"
        }
      }
    },
    "bounds" : {
      "x-WM-FULLY_QUALIFIED_NAME" : "googleservice.bounds",
      "x-WM-TAGS" : [ "RestServiceVirtualController" ],
      "required" : [ "northeast", "southwest" ],
      "properties" : {
        "southwest" : {
          "$ref" : "#/definitions/southwest"
        },
        "northeast" : {
          "$ref" : "#/definitions/northeast"
        }
      }
    },
    "end_location" : {
      "x-WM-FULLY_QUALIFIED_NAME" : "googleservice.end_location",
      "x-WM-TAGS" : [ "RestServiceVirtualController" ],
      "required" : [ "lat", "lng" ],
      "properties" : {
        "lng" : {
          "type" : "string"
        },
        "lat" : {
          "type" : "string"
        }
      }
    },
    "overview_polyline" : {
      "x-WM-FULLY_QUALIFIED_NAME" : "googleservice.overview_polyline",
      "x-WM-TAGS" : [ "RestServiceVirtualController" ],
      "required" : [ "points" ],
      "properties" : {
        "points" : {
          "type" : "string"
        }
      }
    },
    "polyline" : {
      "x-WM-FULLY_QUALIFIED_NAME" : "googleservice.polyline",
      "x-WM-TAGS" : [ "RestServiceVirtualController" ],
      "required" : [ "points" ],
      "properties" : {
        "points" : {
          "type" : "string"
        }
      }
    },
    "RootResponse" : {
      "x-WM-FULLY_QUALIFIED_NAME" : "googleservice.RootResponse",
      "x-WM-TAGS" : [ "RestServiceVirtualController" ],
      "required" : [ "geocoded_waypoint", "route", "status" ],
      "properties" : {
        "route" : {
          "$ref" : "#/definitions/route"
        },
        "geocoded_waypoint" : {
          "x-WM-IS_LIST" : true,
          "type" : "array",
          "items" : {
            "$ref" : "#/definitions/geocoded_waypointEntryItem"
          }
        },
        "status" : {
          "type" : "string"
        }
      }
    }
  },
  "swagger" : "2.0",
  "info" : {
    "x-WM-USE_PROXY_FOR_WEB" : true,
    "x-WM-USE_PROXY_FOR_MOBILE" : true,
    "x-WM-API_ID" : "d1b698b8-2f98-4c85-b1ab-ab3e0a1d532f",
    "x-WM-SERVICE_ID" : "googleapis",
    "version" : "2.0",
    "x-WM-SERVICE_TYPE" : "RestService"
  },
  "tags" : [ {
    "name" : "RestServiceVirtualController",
    "description" : "Rest service swagger documentation"
  } ]
}